EPPS Math Coding Camp
…
Code

ev_data[1, 1]

# A tibble: 1 × 1
  `VIN (1-10)`
  <chr>       
1 1C4RJXN66R  

Code

ev_data[, 2]

# A tibble: 194,232 × 1
   County   
   <chr>    
 1 Snohomish
 2 King     
 3 King     
 4 Kitsap   
 5 Snohomish
 6 Yakima   
 7 Thurston 
 8 Snohomish
 9 Snohomish
10 Snohomish
# ℹ 194,222 more rows

Code

ev_data[, c(2,3)]

# A tibble: 194,232 × 2
   County    City        
   <chr>     <chr>       
 1 Snohomish Everett     
 2 King      Renton      
 3 King      Seattle     
 4 Kitsap    Port Orchard
 5 Snohomish Monroe      
 6 Yakima    Moxee       
 7 Thurston  Olympia     
 8 Snohomish Monroe      
 9 Snohomish Everett     
10 Snohomish Everett     
# ℹ 194,222 more rows
…
# ev_data[[, 2]]

1.1.2 Using Variable Names

Code

head(ev_data$Make)

[1] "JEEP"      "KIA"       "TESLA"     "CHEVROLET" "BMW"       "FORD"     

Code

ev_data[, c("Make", "Model", "Electric_Range")]

# A tibble: 194,232 × 3
   Make      Model    Electric_Range
   <chr>     <chr>             <dbl>
 1 JEEP      WRANGLER             21
 2 KIA       SOUL                 93
 3 TESLA     MODEL 3             266
 4 CHEVROLET VOLT                 53
 5 BMW       X5                   30
 6 FORD      ESCAPE               38
 7 TESLA     MODEL S             208
 8 NISSAN    LEAF                 84
 9 PORSCHE   CAYENNE              14
10 NISSAN    LEAF                  0
# ℹ 194,222 more rows
…
# Subsetting specific columns
ev_columns_subset <- ev_data[, c("Make", "Model", "Electric_Range")]

# Subsetting rows and columns
ev_subset_cols <- ev_data[ev_data$Model_Year == 2020, c("Make", "Electric_Range")]

Using logic operator to do complicated selection

Code

# Find new cars with high electric range
ev_data[ev_data$Model_Year > 2018 & ev_data$Electric_Range >= 100 , c("Make", "Model")]

# A tibble: 19,761 × 2
   Make      Model  
   <chr>     <chr>  
 1 TESLA     MODEL 3
 2 TESLA     MODEL 3
 3 TESLA     MODEL Y
 4 CHEVROLET BOLT EV
 5 TESLA     MODEL 3
 6 TESLA     MODEL 3
 7 TESLA     MODEL 3
 8 NISSAN    LEAF   
 9 TESLA     MODEL 3
10 TESLA     MODEL 3
# ℹ 19,751 more rows
…
Code

# Find cars outside TX that are made by Tesla or is expensive
ev_data[ev_data$State != 'TX' & (ev_data$Make == 'TESLA' | ev_data$`Base MSRP` >= 10000), c("Make", "Model")]

# A tibble: 87,104 × 2
   Make  Model  
   <chr> <chr>  
 1 KIA   SOUL   
 2 TESLA MODEL 3
 3 TESLA MODEL S
 4 TESLA MODEL 3
 5 TESLA MODEL S
 6 TESLA MODEL 3
 7 TESLA MODEL Y
 8 TESLA MODEL X
 9 TESLA MODEL S
10 TESLA MODEL 3
# ℹ 87,094 more rows
…
Code

# Indicates which elements are not missing within a specific column
ev_data[!is.na(ev_data$City ),]

# A tibble: 194,223 × 18
   `VIN (1-10)` County    City         State Zip_Code Model_Year Make      Model
   <chr>        <chr>     <chr>        <chr>    <dbl>      <dbl> <fct>     <chr>
 1 1C4RJXN66R   Snohomish Everett      WA       98204       2024 JEEP      WRAN…
 2 KNDJX3AEXG   King      Renton       WA       98058       2016 KIA       SOUL 
 3 5YJ3E1EA3L   King      Seattle      WA       98125       2020 TESLA     MODE…
 4 1G1RC6S5XH   Kitsap    Port Orchard WA       98367       2017 CHEVROLET VOLT 
 5 5UXTA6C09P   Snohomish Monroe       WA       98272       2023 BMW       X5   
 6 1FMCU0EZXN   Yakima    Moxee        WA       98936       2022 FORD      ESCA…
 7 5YJSA1DNXD   Thurston  Olympia      WA       98506       2013 TESLA     MODE…
 8 1N4AZ0CP8F   Snohomish Monroe       WA       98272       2015 NISSAN    LEAF 
 9 WP1AE2A21J   Snohomish Everett      WA       98208       2018 PORSCHE   CAYE…
10 1N4BZ1BV4N   Snohomish Everett      WA       98208       2022 NISSAN    LEAF 
# ℹ 194,213 more rows
# ℹ 10 more variables: `Electric Vehicle Type` <chr>,
#   `Clean Alternative Fuel Vehicle (CAFV) Eligibility` <chr>,
#   Electric_Range <dbl>, `Base MSRP` <dbl>, `Legislative District` <dbl>,
#   `DOL Vehicle ID` <dbl>, `Vehicle Location` <chr>, `Electric Utility` <chr>,
#   `2020 Census Tract` <dbl>, Vehicle_Age <dbl>
…
# Removes missing values of a specific column by subsetting
ev_data <- ev_data[!is.na(ev_data$City),]

# Check na Removal
sum(is.na(ev_data))

[1] 431

Code

# Removes ALL missing values in data frame
na.omit(ev_data)

# A tibble: 193,794 × 18
   `VIN (1-10)` County    City         State Zip_Code Model_Year Make      Model
   <chr>        <chr>     <chr>        <chr>    <dbl>      <dbl> <fct>     <chr>
 1 1C4RJXN66R   Snohomish Everett      WA       98204       2024 JEEP      WRAN…
 2 KNDJX3AEXG   King      Renton       WA       98058       2016 KIA       SOUL 
 3 5YJ3E1EA3L   King      Seattle      WA       98125       2020 TESLA     MODE…
 4 1G1RC6S5XH   Kitsap    Port Orchard WA       98367       2017 CHEVROLET VOLT 
 5 5UXTA6C09P   Snohomish Monroe       WA       98272       2023 BMW       X5   
 6 1FMCU0EZXN   Yakima    Moxee        WA       98936       2022 FORD      ESCA…
 7 5YJSA1DNXD   Thurston  Olympia      WA       98506       2013 TESLA     MODE…
 8 1N4AZ0CP8F   Snohomish Monroe       WA       98272       2015 NISSAN    LEAF 
 9 WP1AE2A21J   Snohomish Everett      WA       98208       2018 PORSCHE   CAYE…
10 1N4BZ1BV4N   Snohomish Everett      WA       98208       2022 NISSAN    LEAF 
# ℹ 193,784 more rows
# ℹ 10 more variables: `Electric Vehicle Type` <chr>,
#   `Clean Alternative Fuel Vehicle (CAFV) Eligibility` <chr>,
#   Electric_Range <dbl>, `Base MSRP` <dbl>, `Legislative District` <dbl>,
#   `DOL Vehicle ID` <dbl>, `Vehicle Location` <chr>, `Electric Utility` <chr>,
#   `2020 Census Tract` <dbl>, Vehicle_Age <dbl>
…
